[{
  "_id": {
    "$oid": "6479b062ecdebd49d8a12c74"
  },
  "roles": [
    {
      "$oid": "6479a957ecdebd49d8a12c68"
    }
  ],
  "subscribers": [],
  "username": "Admin",
  "email": "admin@gmail.com",
  "password": "$2a$08$yZkqYX60YtOGKmrDNFOlq.6jYAitN0KzqHrkX0GbQSyPeyCurHlVi",
  "createdAt": {
    "$date": {
      "$numberLong": "1685696610113"
    }
  },
  "updatedAt": {
    "$date": {
      "$numberLong": "1685696610179"
    }
  },
  "__v": 1
},{
  "_id": {
    "$oid": "6479b14decdebd49d8a12c91"
  },
  "roles": [
    {
      "$oid": "6479a957ecdebd49d8a12c67"
    }
  ],
  "subscribers": [],
  "username": "gersum",
  "email": "gersumasfaw2010@gmail.com",
  "password": "$2a$08$dA3F7acFNUZQYVB9LoP8V.wI0mIcie7nVySClm6ijd3/1DX30USp2",
  "createdAt": {
    "$date": {
      "$numberLong": "1685696845657"
    }
  },
  "updatedAt": {
    "$date": {
      "$numberLong": "1685696845664"
    }
  },
  "__v": 1
},{
  "_id": {
    "$oid": "6479b19cecdebd49d8a12cc4"
  },
  "roles": [
    {
      "$oid": "6479a957ecdebd49d8a12c66"
    }
  ],
  "subscribers": [],
  "username": "user",
  "email": "user@gmail.com",
  "password": "$2a$08$ceHrLWlZXjhNY9wk3S5uo.7XuITTSsXOj/n99K/QMx16dOP0JWsaa",
  "createdAt": {
    "$date": {
      "$numberLong": "1685696924202"
    }
  },
  "updatedAt": {
    "$date": {
      "$numberLong": "1685696924217"
    }
  },
  "__v": 1
},{
  "_id": {
    "$oid": "6479b98fecdebd49d8a12d7b"
  },
  "roles": [
    {
      "$oid": "6479a957ecdebd49d8a12c69"
    }
  ],
  "subscribers": [],
  "username": "seeder",
  "email": "seeder@gmail.com",
  "password": "$2a$08$F9yqP6MK3T.536Oh9OgCmulDN16208qeiBGdmn1PiWZxFDQEnpV3m",
  "createdAt": {
    "$date": {
      "$numberLong": "1685698959651"
    }
  },
  "updatedAt": {
    "$date": {
      "$numberLong": "1685698959668"
    }
  },
  "__v": 1
},{
  "_id": {
    "$oid": "6479bc2fecdebd49d8a12da7"
  },
  "roles": [
    {
      "$oid": "6479a957ecdebd49d8a12c68"
    }
  ],
  "subscribers": [],
  "username": "Admin2",
  "email": "gersumasfaw2010@gmail.comm",
  "password": "$2a$08$k6tXN0PSLe1GQrYYVuAY3uhLo.QhRkueGeT.jzIsJUJQmzZCVxbzS",
  "createdAt": {
    "$date": {
      "$numberLong": "1685699631880"
    }
  },
  "updatedAt": {
    "$date": {
      "$numberLong": "1685699631896"
    }
  },
  "__v": 1
},{
  "_id": {
    "$oid": "6479bd8cecdebd49d8a12dd1"
  },
  "roles": [
    {
      "$oid": "6479a957ecdebd49d8a12c67"
    }
  ],
  "subscribers": [],
  "username": "extention",
  "email": "e@d",
  "password": "$2a$08$4TCte/gfSij5vosxKVVrxuSToykj60CyBOg1lwZeJISSTGtLnQ3ei",
  "createdAt": {
    "$date": {
      "$numberLong": "1685699980999"
    }
  },
  "updatedAt": {
    "$date": {
      "$numberLong": "1685699981014"
    }
  },
  "__v": 1
},{
  "_id": {
    "$oid": "6479bdb7ecdebd49d8a12de9"
  },
  "roles": [
    {
      "$oid": "6479a957ecdebd49d8a12c67"
    }
  ],
  "subscribers": [],
  "username": "extention3",
  "email": "e@r",
  "password": "$2a$08$A5h0qqRbApPiOHj6JavPquDUkIACH1tW3wpzyRUbVfmXxML3gvWq6",
  "createdAt": {
    "$date": {
      "$numberLong": "1685700023944"
    }
  },
  "updatedAt": {
    "$date": {
      "$numberLong": "1685700023961"
    }
  },
  "__v": 1
},{
  "_id": {
    "$oid": "6479bdd2ecdebd49d8a12e01"
  },
  "roles": [
    {
      "$oid": "6479a957ecdebd49d8a12c69"
    }
  ],
  "subscribers": [],
  "username": "seeder2",
  "email": "s@s",
  "password": "$2a$08$WyYGKQSEqFX81vcvxqy3Nupo2cNUWviLywjaBenB7bZF.7cbDiMEa",
  "createdAt": {
    "$date": {
      "$numberLong": "1685700050669"
    }
  },
  "updatedAt": {
    "$date": {
      "$numberLong": "1685700050677"
    }
  },
  "__v": 1
},{
  "_id": {
    "$oid": "6479be09ecdebd49d8a12e19"
  },
  "roles": [
    {
      "$oid": "6479a957ecdebd49d8a12c69"
    }
  ],
  "subscribers": [],
  "username": "seeder3",
  "email": "s@ss",
  "password": "$2a$08$m0juvdM4ZVHNqnswE7waY.b7BTO0D4b7pkBBtudrkiBhSlu34FSIC",
  "createdAt": {
    "$date": {
      "$numberLong": "1685700105325"
    }
  },
  "updatedAt": {
    "$date": {
      "$numberLong": "1685700105337"
    }
  },
  "__v": 1
},{
  "_id": {
    "$oid": "6479be24ecdebd49d8a12e31"
  },
  "roles": [
    {
      "$oid": "6479a957ecdebd49d8a12c69"
    }
  ],
  "subscribers": [],
  "username": "seeder4",
  "email": "s@sssss",
  "password": "$2a$08$FU1rlVC6cx9GJHQMF2oi8..MzPDzE4vRX3rKncHaaGuNi9Ii1aoxm",
  "createdAt": {
    "$date": {
      "$numberLong": "1685700132982"
    }
  },
  "updatedAt": {
    "$date": {
      "$numberLong": "1685700132990"
    }
  },
  "__v": 1
}]